[
  {
    "model": "settings.invoicefieldvalue",
    "pk": 1,
    "fields": {
      "field": "invoice_number",
      "label": "Invoice Number",
      "values": "Invoice No,Invoice Num,INV"
    }
  },
  {
    "model": "settings.invoicefieldvalue",
    "pk": 2,
    "fields": {
      "field": "invoice_date",
      "label": "Invoice Date",
      "values": ""
    }
  },
  {
    "model": "settings.invoicefieldvalue",
    "pk": 3,
    "fields": {
      "field": "due_date",
      "label": "Due Date",
      "values": ""
    }
  },
  {
    "model": "settings.invoicefieldvalue",
    "pk": 4,
    "fields": {
      "field": "total_amount",
      "label": "Total Amount",
      "values": ""
    }
  },
  {
    "model": "settings.invoicefieldvalue",
    "pk": 5,
    "fields": {
      "field": "vat_amount",
      "label": "Vat Amount",
      "values": ""
    }
  },
  {
    "model": "settings.invoicefieldvalue",
    "pk": 6,
    "fields": {
      "field": "reference_1",
      "label": "Reference",
      "values": ""
    }
  },
  {
    "model": "settings.invoicefieldvalue",
    "pk": 7,
    "fields": {
      "field": "reference_2",
      "label": "Reference 2",
      "values": ""
    }
  }
]